%!PS-Adobe-3.0 EPSF-3.0
%%Creator: (MATLAB, The Mathworks, Inc. Version 9.1.0.441655 \(R2016b\). Operating System: Windows 8)
%%Title: Pictures/ksstat__main_plot_figure1.eps
%%CreationDate: 2017-06-03T08:23:23
%%Pages: (atend)
%%BoundingBox:    10     2   388   293
%%LanguageLevel: 2
%%EndComments
%%BeginProlog
%%BeginResource: procset (Apache XML Graphics Std ProcSet) 1.2 0
%%Version: 1.2 0
%%Copyright: (Copyright 2001-2003,2010 The Apache Software Foundation. License terms: http://www.apache.org/licenses/LICENSE-2.0)
/bd{bind def}bind def
/ld{load def}bd
/GR/grestore ld
/M/moveto ld
/LJ/setlinejoin ld
/C/curveto ld
/f/fill ld
/LW/setlinewidth ld
/GC/setgray ld
/t/show ld
/N/newpath ld
/CT/concat ld
/cp/closepath ld
/S/stroke ld
/L/lineto ld
/CC/setcmykcolor ld
/A/ashow ld
/GS/gsave ld
/RC/setrgbcolor ld
/RM/rmoveto ld
/ML/setmiterlimit ld
/re {4 2 roll M
1 index 0 rlineto
0 exch rlineto
neg 0 rlineto
cp } bd
/_ctm matrix def
/_tm matrix def
/BT { _ctm currentmatrix pop matrix _tm copy pop 0 0 moveto } bd
/ET { _ctm setmatrix } bd
/iTm { _ctm setmatrix _tm concat } bd
/Tm { _tm astore pop iTm 0 0 moveto } bd
/ux 0.0 def
/uy 0.0 def
/F {
  /Tp exch def
  /Tf exch def
  Tf findfont Tp scalefont setfont
  /cf Tf def  /cs Tp def
} bd
/ULS {currentpoint /uy exch def /ux exch def} bd
/ULE {
  /Tcx currentpoint pop def
  gsave
  newpath
  cf findfont cs scalefont dup
  /FontMatrix get 0 get /Ts exch def /FontInfo get dup
  /UnderlinePosition get Ts mul /To exch def
  /UnderlineThickness get Ts mul /Tt exch def
  ux uy To add moveto  Tcx uy To add lineto
  Tt setlinewidth stroke
  grestore
} bd
/OLE {
  /Tcx currentpoint pop def
  gsave
  newpath
  cf findfont cs scalefont dup
  /FontMatrix get 0 get /Ts exch def /FontInfo get dup
  /UnderlinePosition get Ts mul /To exch def
  /UnderlineThickness get Ts mul /Tt exch def
  ux uy To add cs add moveto Tcx uy To add cs add lineto
  Tt setlinewidth stroke
  grestore
} bd
/SOE {
  /Tcx currentpoint pop def
  gsave
  newpath
  cf findfont cs scalefont dup
  /FontMatrix get 0 get /Ts exch def /FontInfo get dup
  /UnderlinePosition get Ts mul /To exch def
  /UnderlineThickness get Ts mul /Tt exch def
  ux uy To add cs 10 mul 26 idiv add moveto Tcx uy To add cs 10 mul 26 idiv add lineto
  Tt setlinewidth stroke
  grestore
} bd
/QT {
/Y22 exch store
/X22 exch store
/Y21 exch store
/X21 exch store
currentpoint
/Y21 load 2 mul add 3 div exch
/X21 load 2 mul add 3 div exch
/X21 load 2 mul /X22 load add 3 div
/Y21 load 2 mul /Y22 load add 3 div
/X22 load /Y22 load curveto
} bd
/SSPD {
dup length /d exch dict def
{
/v exch def
/k exch def
currentpagedevice k known {
/cpdv currentpagedevice k get def
v cpdv ne {
/upd false def
/nullv v type /nulltype eq def
/nullcpdv cpdv type /nulltype eq def
nullv nullcpdv or
{
/upd true def
} {
/sametype v type cpdv type eq def
sametype {
v type /arraytype eq {
/vlen v length def
/cpdvlen cpdv length def
vlen cpdvlen eq {
0 1 vlen 1 sub {
/i exch def
/obj v i get def
/cpdobj cpdv i get def
obj cpdobj ne {
/upd true def
exit
} if
} for
} {
/upd true def
} ifelse
} {
v type /dicttype eq {
v {
/dv exch def
/dk exch def
/cpddv cpdv dk get def
dv cpddv ne {
/upd true def
exit
} if
} forall
} {
/upd true def
} ifelse
} ifelse
} if
} ifelse
upd true eq {
d k v put
} if
} if
} if
} forall
d length 0 gt {
d setpagedevice
} if
} bd
/RE { % /NewFontName [NewEncodingArray] /FontName RE -
  findfont dup length dict begin
  {
    1 index /FID ne
    {def} {pop pop} ifelse
  } forall
  /Encoding exch def
  /FontName 1 index def
  currentdict definefont pop
  end
} bind def
%%EndResource
%%BeginResource: procset (Apache XML Graphics EPS ProcSet) 1.0 0
%%Version: 1.0 0
%%Copyright: (Copyright 2002-2003 The Apache Software Foundation. License terms: http://www.apache.org/licenses/LICENSE-2.0)
/BeginEPSF { %def
/b4_Inc_state save def         % Save state for cleanup
/dict_count countdictstack def % Count objects on dict stack
/op_count count 1 sub def      % Count objects on operand stack
userdict begin                 % Push userdict on dict stack
/showpage { } def              % Redefine showpage, { } = null proc
0 setgray 0 setlinecap         % Prepare graphics state
1 setlinewidth 0 setlinejoin
10 setmiterlimit [ ] 0 setdash newpath
/languagelevel where           % If level not equal to 1 then
{pop languagelevel             % set strokeadjust and
1 ne                           % overprint to their defaults.
{false setstrokeadjust false setoverprint
} if
} if
} bd
/EndEPSF { %def
count op_count sub {pop} repeat            % Clean up stacks
countdictstack dict_count sub {end} repeat
b4_Inc_state restore
} bd
%%EndResource
%FOPBeginFontDict
%%IncludeResource: font Courier-Bold
%%IncludeResource: font Helvetica
%%IncludeResource: font Courier-BoldOblique
%%IncludeResource: font Courier-Oblique
%%IncludeResource: font Times-Roman
%%IncludeResource: font Helvetica-BoldOblique
%%IncludeResource: font Helvetica-Bold
%%IncludeResource: font Helvetica-Oblique
%%IncludeResource: font Times-BoldItalic
%%IncludeResource: font Courier
%%IncludeResource: font Times-Italic
%%IncludeResource: font Times-Bold
%%IncludeResource: font Symbol
%%IncludeResource: font ZapfDingbats
%FOPEndFontDict
%%BeginResource: encoding WinAnsiEncoding
/WinAnsiEncoding [
/.notdef /.notdef /.notdef /.notdef /.notdef
/.notdef /.notdef /.notdef /.notdef /.notdef
/.notdef /.notdef /.notdef /.notdef /.notdef
/.notdef /.notdef /.notdef /.notdef /.notdef
/.notdef /.notdef /.notdef /.notdef /.notdef
/.notdef /.notdef /.notdef /.notdef /.notdef
/.notdef /.notdef /space /exclam /quotedbl
/numbersign /dollar /percent /ampersand /quotesingle
/parenleft /parenright /asterisk /plus /comma
/hyphen /period /slash /zero /one
/two /three /four /five /six
/seven /eight /nine /colon /semicolon
/less /equal /greater /question /at
/A /B /C /D /E
/F /G /H /I /J
/K /L /M /N /O
/P /Q /R /S /T
/U /V /W /X /Y
/Z /bracketleft /backslash /bracketright /asciicircum
/underscore /quoteleft /a /b /c
/d /e /f /g /h
/i /j /k /l /m
/n /o /p /q /r
/s /t /u /v /w
/x /y /z /braceleft /bar
/braceright /asciitilde /bullet /Euro /bullet
/quotesinglbase /florin /quotedblbase /ellipsis /dagger
/daggerdbl /circumflex /perthousand /Scaron /guilsinglleft
/OE /bullet /Zcaron /bullet /bullet
/quoteleft /quoteright /quotedblleft /quotedblright /bullet
/endash /emdash /asciitilde /trademark /scaron
/guilsinglright /oe /bullet /zcaron /Ydieresis
/space /exclamdown /cent /sterling /currency
/yen /brokenbar /section /dieresis /copyright
/ordfeminine /guillemotleft /logicalnot /sfthyphen /registered
/macron /degree /plusminus /twosuperior /threesuperior
/acute /mu /paragraph /middot /cedilla
/onesuperior /ordmasculine /guillemotright /onequarter /onehalf
/threequarters /questiondown /Agrave /Aacute /Acircumflex
/Atilde /Adieresis /Aring /AE /Ccedilla
/Egrave /Eacute /Ecircumflex /Edieresis /Igrave
/Iacute /Icircumflex /Idieresis /Eth /Ntilde
/Ograve /Oacute /Ocircumflex /Otilde /Odieresis
/multiply /Oslash /Ugrave /Uacute /Ucircumflex
/Udieresis /Yacute /Thorn /germandbls /agrave
/aacute /acircumflex /atilde /adieresis /aring
/ae /ccedilla /egrave /eacute /ecircumflex
/edieresis /igrave /iacute /icircumflex /idieresis
/eth /ntilde /ograve /oacute /ocircumflex
/otilde /odieresis /divide /oslash /ugrave
/uacute /ucircumflex /udieresis /yacute /thorn
/ydieresis
] def
%%EndResource
%FOPBeginFontReencode
/Courier-Bold findfont
dup length dict begin
  {1 index /FID ne {def} {pop pop} ifelse} forall
  /Encoding WinAnsiEncoding def
  currentdict
end
/Courier-Bold exch definefont pop
/Helvetica findfont
dup length dict begin
  {1 index /FID ne {def} {pop pop} ifelse} forall
  /Encoding WinAnsiEncoding def
  currentdict
end
/Helvetica exch definefont pop
/Courier-BoldOblique findfont
dup length dict begin
  {1 index /FID ne {def} {pop pop} ifelse} forall
  /Encoding WinAnsiEncoding def
  currentdict
end
/Courier-BoldOblique exch definefont pop
/Courier-Oblique findfont
dup length dict begin
  {1 index /FID ne {def} {pop pop} ifelse} forall
  /Encoding WinAnsiEncoding def
  currentdict
end
/Courier-Oblique exch definefont pop
/Times-Roman findfont
dup length dict begin
  {1 index /FID ne {def} {pop pop} ifelse} forall
  /Encoding WinAnsiEncoding def
  currentdict
end
/Times-Roman exch definefont pop
/Helvetica-BoldOblique findfont
dup length dict begin
  {1 index /FID ne {def} {pop pop} ifelse} forall
  /Encoding WinAnsiEncoding def
  currentdict
end
/Helvetica-BoldOblique exch definefont pop
/Helvetica-Bold findfont
dup length dict begin
  {1 index /FID ne {def} {pop pop} ifelse} forall
  /Encoding WinAnsiEncoding def
  currentdict
end
/Helvetica-Bold exch definefont pop
/Helvetica-Oblique findfont
dup length dict begin
  {1 index /FID ne {def} {pop pop} ifelse} forall
  /Encoding WinAnsiEncoding def
  currentdict
end
/Helvetica-Oblique exch definefont pop
/Times-BoldItalic findfont
dup length dict begin
  {1 index /FID ne {def} {pop pop} ifelse} forall
  /Encoding WinAnsiEncoding def
  currentdict
end
/Times-BoldItalic exch definefont pop
/Courier findfont
dup length dict begin
  {1 index /FID ne {def} {pop pop} ifelse} forall
  /Encoding WinAnsiEncoding def
  currentdict
end
/Courier exch definefont pop
/Times-Italic findfont
dup length dict begin
  {1 index /FID ne {def} {pop pop} ifelse} forall
  /Encoding WinAnsiEncoding def
  currentdict
end
/Times-Italic exch definefont pop
/Times-Bold findfont
dup length dict begin
  {1 index /FID ne {def} {pop pop} ifelse} forall
  /Encoding WinAnsiEncoding def
  currentdict
end
/Times-Bold exch definefont pop
%FOPEndFontReencode
%%EndProlog
%%Page: 1 1
%%PageBoundingBox: 0 0 420 315
%%BeginPageSetup
[1 0 0 -1 0 315] CT
%%EndPageSetup
GS
[0.75 0 0 0.75 0 0] CT
1 GC
N
0 0 560 420 re
f
GR
GS
[0.75 0 0 0.75 0 0] CT
1 GC
N
0 0 560 420 re
f
GR
GS
[0.75 0 0 0.75 0 0] CT
1 GC
N
73 369 M
507 369 L
507 31 L
73 31 L
cp
f
GR
GS
[0.75 0 0 0.75 0 0] CT
0.149 GC
2 setlinecap
1 LJ
0.667 LW
N
73 369 M
507 369 L
S
GR
GS
[0.75 0 0 0.75 0 0] CT
0.149 GC
2 setlinecap
1 LJ
0.667 LW
N
73 369 M
73 364.66 L
S
GR
GS
[0.75 0 0 0.75 0 0] CT
0.149 GC
2 setlinecap
1 LJ
0.667 LW
N
145.333 369 M
145.333 364.66 L
S
GR
GS
[0.75 0 0 0.75 0 0] CT
0.149 GC
2 setlinecap
1 LJ
0.667 LW
N
217.667 369 M
217.667 364.66 L
S
GR
GS
[0.75 0 0 0.75 0 0] CT
0.149 GC
2 setlinecap
1 LJ
0.667 LW
N
290 369 M
290 364.66 L
S
GR
GS
[0.75 0 0 0.75 0 0] CT
0.149 GC
2 setlinecap
1 LJ
0.667 LW
N
362.333 369 M
362.333 364.66 L
S
GR
GS
[0.75 0 0 0.75 0 0] CT
0.149 GC
2 setlinecap
1 LJ
0.667 LW
N
434.667 369 M
434.667 364.66 L
S
GR
GS
[0.75 0 0 0.75 0 0] CT
0.149 GC
2 setlinecap
1 LJ
0.667 LW
N
507 369 M
507 364.66 L
S
GR
GS
[0.75 0 0 0.75 54.75 281.15] CT
0.149 GC
/Helvetica 16 F
GS
[1 0 0 1 0 0] CT
-4.5 17 moveto 
1 -1 scale
(0) t 
GR
GR
GS
[0.75 0 0 0.75 109 281.15] CT
0.149 GC
/Helvetica 16 F
GS
[1 0 0 1 0 0] CT
-16 17 moveto 
1 -1 scale
(0.05) t 
GR
GR
GS
[0.75 0 0 0.75 163.25 281.15] CT
0.149 GC
/Helvetica 16 F
GS
[1 0 0 1 0 0] CT
-11.5 17 moveto 
1 -1 scale
(0.1) t 
GR
GR
GS
[0.75 0 0 0.75 217.5 281.15] CT
0.149 GC
/Helvetica 16 F
GS
[1 0 0 1 0 0] CT
-16 17 moveto 
1 -1 scale
(0.15) t 
GR
GR
GS
[0.75 0 0 0.75 271.75001 281.15] CT
0.149 GC
/Helvetica 16 F
GS
[1 0 0 1 0 0] CT
-11.5 17 moveto 
1 -1 scale
(0.2) t 
GR
GR
GS
[0.75 0 0 0.75 325.99999 281.15] CT
0.149 GC
/Helvetica 16 F
GS
[1 0 0 1 0 0] CT
-16 17 moveto 
1 -1 scale
(0.25) t 
GR
GR
GS
[0.75 0 0 0.75 380.25002 281.15] CT
0.149 GC
/Helvetica 16 F
GS
[1 0 0 1 0 0] CT
-11.5 17 moveto 
1 -1 scale
(0.3) t 
GR
GR
GS
[0.75 0 0 0.75 217.50016 297.90001] CT
0.149 GC
/Helvetica 17.6 F
GS
[1 0 0 1 0 0] CT
-49.5 19 moveto 
1 -1 scale
(KS statistics) t 
GR
GR
GS
[0.75 0 0 0.75 0 0] CT
0.149 GC
2 setlinecap
1 LJ
0.667 LW
N
73 369 M
73 31 L
S
GR
GS
[0.75 0 0 0.75 0 0] CT
0.149 GC
2 setlinecap
1 LJ
0.667 LW
N
73 344.857 M
77.34 344.857 L
S
GR
GS
[0.75 0 0 0.75 0 0] CT
0.149 GC
2 setlinecap
1 LJ
0.667 LW
N
73 320.714 M
77.34 320.714 L
S
GR
GS
[0.75 0 0 0.75 0 0] CT
0.149 GC
2 setlinecap
1 LJ
0.667 LW
N
73 296.571 M
77.34 296.571 L
S
GR
GS
[0.75 0 0 0.75 0 0] CT
0.149 GC
2 setlinecap
1 LJ
0.667 LW
N
73 272.429 M
77.34 272.429 L
S
GR
GS
[0.75 0 0 0.75 0 0] CT
0.149 GC
2 setlinecap
1 LJ
0.667 LW
N
73 248.286 M
77.34 248.286 L
S
GR
GS
[0.75 0 0 0.75 0 0] CT
0.149 GC
2 setlinecap
1 LJ
0.667 LW
N
73 224.143 M
77.34 224.143 L
S
GR
GS
[0.75 0 0 0.75 0 0] CT
0.149 GC
2 setlinecap
1 LJ
0.667 LW
N
73 200 M
77.34 200 L
S
GR
GS
[0.75 0 0 0.75 0 0] CT
0.149 GC
2 setlinecap
1 LJ
0.667 LW
N
73 175.857 M
77.34 175.857 L
S
GR
GS
[0.75 0 0 0.75 0 0] CT
0.149 GC
2 setlinecap
1 LJ
0.667 LW
N
73 151.714 M
77.34 151.714 L
S
GR
GS
[0.75 0 0 0.75 0 0] CT
0.149 GC
2 setlinecap
1 LJ
0.667 LW
N
73 127.571 M
77.34 127.571 L
S
GR
GS
[0.75 0 0 0.75 0 0] CT
0.149 GC
2 setlinecap
1 LJ
0.667 LW
N
73 103.429 M
77.34 103.429 L
S
GR
GS
[0.75 0 0 0.75 0 0] CT
0.149 GC
2 setlinecap
1 LJ
0.667 LW
N
73 79.286 M
77.34 79.286 L
S
GR
GS
[0.75 0 0 0.75 0 0] CT
0.149 GC
2 setlinecap
1 LJ
0.667 LW
N
73 55.143 M
77.34 55.143 L
S
GR
GS
[0.75 0 0 0.75 50.35 258.64286] CT
0.149 GC
/Helvetica 16 F
GS
[1 0 0 1 0 0] CT
-54 6.5 moveto 
1 -1 scale
(P1:1\(F\)) t 
GR
GR
GS
[0.75 0 0 0.75 50.35 240.53572] CT
0.149 GC
/Helvetica 16 F
GS
[1 0 0 1 0 0] CT
-54 6.5 moveto 
1 -1 scale
(P1:2\(F\)) t 
GR
GR
GS
[0.75 0 0 0.75 50.35 222.42858] CT
0.149 GC
/Helvetica 16 F
GS
[1 0 0 1 0 0] CT
-55 6.5 moveto 
1 -1 scale
(P1:3\(S\)) t 
GR
GR
GS
[0.75 0 0 0.75 50.35 204.32142] CT
0.149 GC
/Helvetica 16 F
GS
[1 0 0 1 0 0] CT
-55 6.5 moveto 
1 -1 scale
(P1:4\(S\)) t 
GR
GR
GS
[0.75 0 0 0.75 50.35 186.21429] CT
0.149 GC
/Helvetica 16 F
GS
[1 0 0 1 0 0] CT
-55 6.5 moveto 
1 -1 scale
(P1:5\(S\)) t 
GR
GR
GS
[0.75 0 0 0.75 50.35 168.10714] CT
0.149 GC
/Helvetica 16 F
GS
[1 0 0 1 0 0] CT
-54 6.5 moveto 
1 -1 scale
(P1:6\(F\)) t 
GR
GR
GS
[0.75 0 0 0.75 50.35 150] CT
0.149 GC
/Helvetica 16 F
GS
[1 0 0 1 0 0] CT
-54 6.5 moveto 
1 -1 scale
(P1:7\(F\)) t 
GR
GR
GS
[0.75 0 0 0.75 50.35 131.89286] CT
0.149 GC
/Helvetica 16 F
GS
[1 0 0 1 0 0] CT
-54 6.5 moveto 
1 -1 scale
(P1:8\(F\)) t 
GR
GR
GS
[0.75 0 0 0.75 50.35 113.78571] CT
0.149 GC
/Helvetica 16 F
GS
[1 0 0 1 0 0] CT
-54 6.5 moveto 
1 -1 scale
(P1:9\(F\)) t 
GR
GR
GS
[0.75 0 0 0.75 50.35 95.67857] CT
0.149 GC
/Helvetica 16 F
GS
[1 0 0 1 0 0] CT
-54 6.5 moveto 
1 -1 scale
(P2:1\(F\)) t 
GR
GR
GS
[0.75 0 0 0.75 50.35 77.57143] CT
0.149 GC
/Helvetica 16 F
GS
[1 0 0 1 0 0] CT
-55 6.5 moveto 
1 -1 scale
(P2:2\(S\)) t 
GR
GR
GS
[0.75 0 0 0.75 50.35 59.46428] CT
0.149 GC
/Helvetica 16 F
GS
[1 0 0 1 0 0] CT
-55 6.5 moveto 
1 -1 scale
(P2:3\(S\)) t 
GR
GR
GS
[0.75 0 0 0.75 50.35 41.35714] CT
0.149 GC
/Helvetica 16 F
GS
[1 0 0 1 0 0] CT
-55 6.5 moveto 
1 -1 scale
(P2:4\(S\)) t 
GR
GR
GS
[0.75 0 0 0.75 0 0] CT
0.149 GC
1 LJ
0.667 LW
N
73 369 M
73 31 L
S
GR
GS
[0.75 0 0 0.75 0 0] CT
0.208 0.165 0.525 RC
N
73 351.065 M
73 345.547 L
128.653 345.547 L
128.653 351.065 L
cp
f
GR
GS
[0.75 0 0 0.75 0 0] CT
0.208 0.165 0.525 RC
N
73 326.922 M
73 321.404 L
118.512 321.404 L
118.512 326.922 L
cp
f
GR
GS
[0.75 0 0 0.75 0 0] CT
0.208 0.165 0.525 RC
N
73 302.78 M
73 297.261 L
114.711 297.261 L
114.711 302.78 L
cp
f
GR
GS
[0.75 0 0 0.75 0 0] CT
0.208 0.165 0.525 RC
N
73 278.637 M
73 273.118 L
133.051 273.118 L
133.051 278.637 L
cp
f
GR
GS
[0.75 0 0 0.75 0 0] CT
0.208 0.165 0.525 RC
N
73 254.494 M
73 248.976 L
138.51 248.976 L
138.51 254.494 L
cp
f
GR
GS
[0.75 0 0 0.75 0 0] CT
0.208 0.165 0.525 RC
N
73 230.351 M
73 224.833 L
429.694 224.833 L
429.694 230.351 L
cp
f
GR
GS
[0.75 0 0 0.75 0 0] CT
0.208 0.165 0.525 RC
N
73 206.208 M
73 200.69 L
127.419 200.69 L
127.419 206.208 L
cp
f
GR
GS
[0.75 0 0 0.75 0 0] CT
0.208 0.165 0.525 RC
N
73 182.065 M
73 176.547 L
436.549 176.547 L
436.549 182.065 L
cp
f
GR
GS
[0.75 0 0 0.75 0 0] CT
0.208 0.165 0.525 RC
N
73 157.922 M
73 152.404 L
118.711 152.404 L
118.711 157.922 L
cp
f
GR
GS
[0.75 0 0 0.75 0 0] CT
0.208 0.165 0.525 RC
N
73 133.78 M
73 128.261 L
135.264 128.261 L
135.264 133.78 L
cp
f
GR
GS
[0.75 0 0 0.75 0 0] CT
0.208 0.165 0.525 RC
N
73 109.637 M
73 104.118 L
124.427 104.118 L
124.427 109.637 L
cp
f
GR
GS
[0.75 0 0 0.75 0 0] CT
0.208 0.165 0.525 RC
N
73 85.494 M
73 79.976 L
124.775 79.976 L
124.775 85.494 L
cp
f
GR
GS
[0.75 0 0 0.75 0 0] CT
0.208 0.165 0.525 RC
N
73 61.351 M
73 55.833 L
138 55.833 L
138 61.351 L
cp
f
GR
GS
[0.75 0 0 0.75 0 0] CT
10.0 ML
0.667 LW
N
73 351.065 M
128.653 351.065 L
128.653 345.547 L
73 345.547 L
cp
S
GR
GS
[0.75 0 0 0.75 0 0] CT
10.0 ML
0.667 LW
N
73 326.922 M
118.512 326.922 L
118.512 321.404 L
73 321.404 L
cp
S
GR
GS
[0.75 0 0 0.75 0 0] CT
10.0 ML
0.667 LW
N
73 302.78 M
114.711 302.78 L
114.711 297.261 L
73 297.261 L
cp
S
GR
GS
[0.75 0 0 0.75 0 0] CT
10.0 ML
0.667 LW
N
73 278.637 M
133.051 278.637 L
133.051 273.118 L
73 273.118 L
cp
S
GR
GS
[0.75 0 0 0.75 0 0] CT
10.0 ML
0.667 LW
N
73 254.494 M
138.51 254.494 L
138.51 248.976 L
73 248.976 L
cp
S
GR
GS
[0.75 0 0 0.75 0 0] CT
10.0 ML
0.667 LW
N
73 230.351 M
429.694 230.351 L
429.694 224.833 L
73 224.833 L
cp
S
GR
GS
[0.75 0 0 0.75 0 0] CT
10.0 ML
0.667 LW
N
73 206.208 M
127.419 206.208 L
127.419 200.69 L
73 200.69 L
cp
S
GR
GS
[0.75 0 0 0.75 0 0] CT
10.0 ML
0.667 LW
N
73 182.065 M
436.549 182.065 L
436.549 176.547 L
73 176.547 L
cp
S
GR
GS
[0.75 0 0 0.75 0 0] CT
10.0 ML
0.667 LW
N
73 157.922 M
118.711 157.922 L
118.711 152.404 L
73 152.404 L
cp
S
GR
GS
[0.75 0 0 0.75 0 0] CT
10.0 ML
0.667 LW
N
73 133.78 M
135.264 133.78 L
135.264 128.261 L
73 128.261 L
cp
S
GR
GS
[0.75 0 0 0.75 0 0] CT
10.0 ML
0.667 LW
N
73 109.637 M
124.427 109.637 L
124.427 104.118 L
73 104.118 L
cp
S
GR
GS
[0.75 0 0 0.75 0 0] CT
10.0 ML
0.667 LW
N
73 85.494 M
124.775 85.494 L
124.775 79.976 L
73 79.976 L
cp
S
GR
GS
[0.75 0 0 0.75 0 0] CT
10.0 ML
0.667 LW
N
73 61.351 M
138 61.351 L
138 55.833 L
73 55.833 L
cp
S
GR
GS
[0.75 0 0 0.75 0 0] CT
0.973 0.98 0.051 RC
N
73 344.167 M
73 338.649 L
120.605 338.649 L
120.605 344.167 L
cp
f
GR
GS
[0.75 0 0 0.75 0 0] CT
0.973 0.98 0.051 RC
N
73 320.025 M
73 314.506 L
114.437 314.506 L
114.437 320.025 L
cp
f
GR
GS
[0.75 0 0 0.75 0 0] CT
0.973 0.98 0.051 RC
N
73 295.882 M
73 290.363 L
168.543 290.363 L
168.543 295.882 L
cp
f
GR
GS
[0.75 0 0 0.75 0 0] CT
0.973 0.98 0.051 RC
N
73 271.739 M
73 266.22 L
110.402 266.22 L
110.402 271.739 L
cp
f
GR
GS
[0.75 0 0 0.75 0 0] CT
0.973 0.98 0.051 RC
N
73 247.596 M
73 242.078 L
150.214 242.078 L
150.214 247.596 L
cp
f
GR
GS
[0.75 0 0 0.75 0 0] CT
0.973 0.98 0.051 RC
N
73 223.453 M
73 217.935 L
403.046 217.935 L
403.046 223.453 L
cp
f
GR
GS
[0.75 0 0 0.75 0 0] CT
0.973 0.98 0.051 RC
N
73 199.31 M
73 193.792 L
248.141 193.792 L
248.141 199.31 L
cp
f
GR
GS
[0.75 0 0 0.75 0 0] CT
0.973 0.98 0.051 RC
N
73 175.167 M
73 169.649 L
353.057 169.649 L
353.057 175.167 L
cp
f
GR
GS
[0.75 0 0 0.75 0 0] CT
0.973 0.98 0.051 RC
N
73 151.024 M
73 145.506 L
217.793 145.506 L
217.793 151.024 L
cp
f
GR
GS
[0.75 0 0 0.75 0 0] CT
0.973 0.98 0.051 RC
N
73 126.882 M
73 121.363 L
116.961 121.363 L
116.961 126.882 L
cp
f
GR
GS
[0.75 0 0 0.75 0 0] CT
0.973 0.98 0.051 RC
N
73 102.739 M
73 97.22 L
157.156 97.22 L
157.156 102.739 L
cp
f
GR
GS
[0.75 0 0 0.75 0 0] CT
0.973 0.98 0.051 RC
N
73 78.596 M
73 73.078 L
109.427 73.078 L
109.427 78.596 L
cp
f
GR
GS
[0.75 0 0 0.75 0 0] CT
0.973 0.98 0.051 RC
N
73 54.453 M
73 48.935 L
121.744 48.935 L
121.744 54.453 L
cp
f
GR
GS
[0.75 0 0 0.75 0 0] CT
10.0 ML
0.667 LW
N
73 344.167 M
120.605 344.167 L
120.605 338.649 L
73 338.649 L
cp
S
GR
GS
[0.75 0 0 0.75 0 0] CT
10.0 ML
0.667 LW
N
73 320.025 M
114.437 320.025 L
114.437 314.506 L
73 314.506 L
cp
S
GR
GS
[0.75 0 0 0.75 0 0] CT
10.0 ML
0.667 LW
N
73 295.882 M
168.543 295.882 L
168.543 290.363 L
73 290.363 L
cp
S
GR
GS
[0.75 0 0 0.75 0 0] CT
10.0 ML
0.667 LW
N
73 271.739 M
110.402 271.739 L
110.402 266.22 L
73 266.22 L
cp
S
GR
GS
[0.75 0 0 0.75 0 0] CT
10.0 ML
0.667 LW
N
73 247.596 M
150.214 247.596 L
150.214 242.078 L
73 242.078 L
cp
S
GR
GS
[0.75 0 0 0.75 0 0] CT
10.0 ML
0.667 LW
N
73 223.453 M
403.046 223.453 L
403.046 217.935 L
73 217.935 L
cp
S
GR
GS
[0.75 0 0 0.75 0 0] CT
10.0 ML
0.667 LW
N
73 199.31 M
248.141 199.31 L
248.141 193.792 L
73 193.792 L
cp
S
GR
GS
[0.75 0 0 0.75 0 0] CT
10.0 ML
0.667 LW
N
73 175.167 M
353.057 175.167 L
353.057 169.649 L
73 169.649 L
cp
S
GR
GS
[0.75 0 0 0.75 0 0] CT
10.0 ML
0.667 LW
N
73 151.024 M
217.793 151.024 L
217.793 145.506 L
73 145.506 L
cp
S
GR
GS
[0.75 0 0 0.75 0 0] CT
10.0 ML
0.667 LW
N
73 126.882 M
116.961 126.882 L
116.961 121.363 L
73 121.363 L
cp
S
GR
GS
[0.75 0 0 0.75 0 0] CT
10.0 ML
0.667 LW
N
73 102.739 M
157.156 102.739 L
157.156 97.22 L
73 97.22 L
cp
S
GR
GS
[0.75 0 0 0.75 0 0] CT
10.0 ML
0.667 LW
N
73 78.596 M
109.427 78.596 L
109.427 73.078 L
73 73.078 L
cp
S
GR
GS
[0.75 0 0 0.75 0 0] CT
10.0 ML
0.667 LW
N
73 54.453 M
121.744 54.453 L
121.744 48.935 L
73 48.935 L
cp
S
GR
GS
[0.75 0 0 0.75 0 0] CT
[10 6] 0 setdash
2 LJ
0.667 LW
N
82.818 369 M
82.818 31 L
S
GR
GS
[0.75 0 0 0.75 0 0] CT
1 0 0 RC
[8 3 2 3] 0 setdash
2 LJ
0.667 LW
N
152.796 369 M
152.796 31 L
S
GR
GS
[0.75 0 0 0.75 0 0] CT
1 GC
N
372 126 M
372 44 L
494 44 L
494 126 L
cp
f
GR
GS
[0.75 0 0 0.75 306.75 41.67791] CT
/Helvetica 14.4 F
GS
[1 0 0 1 0 0] CT
0 5.5 moveto 
1 -1 scale
(diff-pair) t 
GR
GR
GS
[0.75 0 0 0.75 0 0] CT
0.208 0.165 0.525 RC
N
376 62.966 M
376 48.175 L
406 48.175 L
406 62.966 L
cp
f
GR
GS
[0.75 0 0 0.75 0 0] CT
10.0 ML
0.667 LW
N
376 62.966 M
376 48.175 L
406 48.175 L
406 62.966 L
cp
S
GR
GS
[0.75 0 0 0.75 306.75 56.39264] CT
/Helvetica 14.4 F
GS
[1 0 0 1 0 0] CT
0 5.5 moveto 
1 -1 scale
(same-pair) t 
GR
GR
GS
[0.75 0 0 0.75 0 0] CT
0.973 0.98 0.051 RC
N
376 82.585 M
376 67.795 L
406 67.795 L
406 82.585 L
cp
f
GR
GS
[0.75 0 0 0.75 0 0] CT
10.0 ML
0.667 LW
N
376 82.585 M
376 67.795 L
406 67.795 L
406 82.585 L
cp
S
GR
GS
[0.75 0 0 0.75 306.75 71.10736] CT
/Helvetica 14.4 F
GS
[1 0 0 1 0 0] CT
0 5.5 moveto 
1 -1 scale
(cv diff-pair) t 
GR
GR
GS
[0.75 0 0 0.75 0 0] CT
[10 6] 0 setdash
2 LJ
0.667 LW
N
376 94.81 M
406 94.81 L
S
GR
GS
[0.75 0 0 0.75 306.75 85.82209] CT
/Helvetica 14.4 F
GS
[1 0 0 1 0 0] CT
0 5.5 moveto 
1 -1 scale
(cv same-pair) t 
GR
GR
GS
[0.75 0 0 0.75 0 0] CT
1 0 0 RC
[8 3 2 3] 0 setdash
2 LJ
0.667 LW
N
376 114.429 M
406 114.429 L
S
GR
GS
[0.75 0 0 0.75 0 0] CT
0.149 GC
10.0 ML
0.667 LW
N
372 126 M
372 44 L
494 44 L
494 126 L
cp
S
GR
%%Trailer
%%Pages: 1
%%EOF
